<?xml version="1.0" encoding="UTF-8"?>
<testng-results skipped="0" failed="0" ignored="0" total="2" passed="2">
  <reporter-output>
  </reporter-output>
  <suite name="Suite" duration-ms="54315" started-at="2018-07-18T10:13:05Z" finished-at="2018-07-18T10:14:00Z">
    <groups>
    </groups>
    <test name="Test" duration-ms="54315" started-at="2018-07-18T10:13:05Z" finished-at="2018-07-18T10:14:00Z">
      <class name="testbase.TC_LoginLogout">
        <test-method status="PASS" signature="TC1_Login()[pri:1, instance:testbase.TC_LoginLogout@6b54655f]" name="TC1_Login" duration-ms="47708" started-at="2018-07-18T15:43:05Z" finished-at="2018-07-18T15:43:53Z">
          <reporter-output>
          </reporter-output>
        </test-method> <!-- TC1_Login -->
        <test-method status="PASS" signature="TC2_logout()[pri:2, instance:testbase.TC_LoginLogout@6b54655f]" name="TC2_logout" duration-ms="6305" started-at="2018-07-18T15:43:53Z" finished-at="2018-07-18T15:44:00Z">
          <reporter-output>
          </reporter-output>
        </test-method> <!-- TC2_logout -->
      </class> <!-- testbase.TC_LoginLogout -->
    </test> <!-- Test -->
  </suite> <!-- Suite -->
</testng-results>
